nvs,      data, nvs,     0x9000,  0x5000,
otadata,  data, ota,     0xe000,  0x2000,
app0,     app,  ota_0,   0x10000, 0x140000,
app1,     app,  ota_1,   0x150000,0x140000,
eeprom0,  data, 0x99,    0x290000,0x2000,
eeprom1,  data, 0x99,    0x292000,0x2000,
spiffs,   data, spiffs,  0x294000,0x16DFFD,